syn/iverilog/0516/dump.vcd
$date
	Sat May 18 20:22:44 2024
$end
$version
	Icarus Verilog
$end
$timescale
	1ps
$end
$scope module tb_axi_pim $end
$scope module uut $end
$var wire 1 ! clk $end
$var wire 1 " p_en $end
$var wire 1 # rst $end
$var wire 8 $ s_axi_araddr [7:0] $end
$var wire 2 % s_axi_arburst [1:0] $end
$var wire 4 & s_axi_arcache [3:0] $end
$var wire 8 ' s_axi_arid [7:0] $end
$var wire 8 ( s_axi_arlen [7:0] $end
$var wire 1 ) s_axi_arlock $end
$var wire 3 * s_axi_arprot [2:0] $end
$var wire 1 + s_axi_arready $end
$var wire 3 , s_axi_arsize [2:0] $end
$var wire 1 - s_axi_arvalid $end
$var wire 8 . s_axi_awaddr [7:0] $end
$var wire 2 / s_axi_awburst [1:0] $end
$var wire 4 0 s_axi_awcache [3:0] $end
$var wire 8 1 s_axi_awid [7:0] $end
$var wire 8 2 s_axi_awlen [7:0] $end
$var wire 1 3 s_axi_awlock $end
$var wire 3 4 s_axi_awprot [2:0] $end
$var wire 1 5 s_axi_awready $end
$var wire 3 6 s_axi_awsize [2:0] $end
$var wire 1 7 s_axi_awvalid $end
$var wire 8 8 s_axi_bid [7:0] $end
$var wire 1 9 s_axi_bready $end
$var wire 2 : s_axi_bresp [1:0] $end
$var wire 1 ; s_axi_bvalid $end
$var wire 32 < s_axi_rdata [31:0] $end
$var wire 8 = s_axi_rid [7:0] $end
$var wire 1 > s_axi_rlast $end
$var wire 1 ? s_axi_rready $end
$var wire 2 @ s_axi_rresp [1:0] $end
$var wire 1 A s_axi_rvalid $end
$var wire 32 B s_axi_wdata [31:0] $end
$var wire 1 C s_axi_wlast $end
$var wire 1 D s_axi_wready $end
$var wire 4 E s_axi_wstrb [3:0] $end
$var wire 1 F s_axi_wvalid $end
$var wire 8 G write_addr_valid [7:0] $end
$var wire 8 H s_axi_awaddr_valid [7:0] $end
$var wire 8 I s_axi_araddr_valid [7:0] $end
$var wire 8 J read_addr_valid [7:0] $end
$var wire 32 K q [31:0] $end
$var wire 32 L mac_out [31:0] $end
$var reg 1 M mem_rd_en $end
$var reg 1 N mem_wr_en $end
$var reg 256 O pim_rwl [255:0] $end
$var reg 8 P read_addr_next [7:0] $end
$var reg 8 Q read_addr_reg [7:0] $end
$var reg 2 R read_burst_next [1:0] $end
$var reg 2 S read_burst_reg [1:0] $end
$var reg 8 T read_count_next [7:0] $end
$var reg 8 U read_count_reg [7:0] $end
$var reg 8 V read_id_next [7:0] $end
$var reg 8 W read_id_reg [7:0] $end
$var reg 3 X read_size_next [2:0] $end
$var reg 3 Y read_size_reg [2:0] $end
$var reg 1 Z read_state_next $end
$var reg 1 [ read_state_reg $end
$var reg 1 \ s_axi_arready_next $end
$var reg 1 ] s_axi_arready_reg $end
$var reg 1 ^ s_axi_awready_next $end
$var reg 1 _ s_axi_awready_reg $end
$var reg 8 ` s_axi_bid_next [7:0] $end
$var reg 8 a s_axi_bid_reg [7:0] $end
$var reg 1 b s_axi_bvalid_next $end
$var reg 1 c s_axi_bvalid_reg $end
$var reg 32 d s_axi_rdata_pipe_reg [31:0] $end
$var reg 32 e s_axi_rdata_reg [31:0] $end
$var reg 8 f s_axi_rid_next [7:0] $end
$var reg 8 g s_axi_rid_pipe_reg [7:0] $end
$var reg 8 h s_axi_rid_reg [7:0] $end
$var reg 1 i s_axi_rlast_next $end
$var reg 1 j s_axi_rlast_pipe_reg $end
$var reg 1 k s_axi_rlast_reg $end
$var reg 1 l s_axi_rvalid_next $end
$var reg 1 m s_axi_rvalid_pipe_reg $end
$var reg 1 n s_axi_rvalid_reg $end
$var reg 1 o s_axi_wready_next $end
$var reg 1 p s_axi_wready_reg $end
$var reg 8 q write_addr_next [7:0] $end
$var reg 8 r write_addr_reg [7:0] $end
$var reg 2 s write_burst_next [1:0] $end
$var reg 2 t write_burst_reg [1:0] $end
$var reg 8 u write_count_next [7:0] $end
$var reg 8 v write_count_reg [7:0] $end
$var reg 8 w write_id_next [7:0] $end
$var reg 8 x write_id_reg [7:0] $end
$var reg 3 y write_size_next [2:0] $end
$var reg 3 z write_size_reg [2:0] $end
$var reg 2 { write_state_next [1:0] $end
$var reg 2 | write_state_reg [1:0] $end
$var integer 32 } i [31:0] $end
$var integer 32 ~ j [31:0] $end
$scope module pim_inst $end
$var wire 8 !" addr [7:0] $end
$var wire 1 ! clk $end
$var wire 32 "" d [31:0] $end
$var wire 32 #" mac_out [31:0] $end
$var wire 1 " p_en $end
$var wire 32 $" q [31:0] $end
$var wire 256 %" rwl [255:0] $end
$var wire 1 N w_en $end
$var wire 33 &" acc_result_5 [32:0] $end
$var wire 33 '" acc_result_4 [32:0] $end
$var wire 33 (" acc_result_3 [32:0] $end
$var wire 33 )" acc_result_2 [32:0] $end
$var wire 33 *" acc_result_1 [32:0] $end
$var wire 33 +" acc_result_0 [32:0] $end
$var reg 32 ," mac_out_reg [31:0] $end
$var reg 32 -" q_reg [31:0] $end
$var reg 5 ." shift_cnt [4:0] $end
$var reg 32 /" sum_acc_result [31:0] $end
$var integer 32 0" i [31:0] $end
$var integer 32 1" j [31:0] $end
$upscope $end
$upscope $end
$upscope $end
$enddefinitions $end
#0
$dumpvars
bx 1"
bx 0"
bx /"
bx ."
bx -"
bx ,"
b0xxxxxxxxxxxxxxxxxxxxxxxxxxxxxxxx +"
b0xxxxxxxxxxxxxxxxxxxxxxxxxxxxxxxx *"
b0xxxxxxxxxxxxxxxxxxxxxxxxxxxxxxxx )"
b0xxxxxxxxxxxxxxxxxxxxxxxxxxxxxxxx ("
b0xxxxxxxxxxxxxxxxxxxxxxxxxxxxxxxx '"
b0xxxxxxxxxxxxxxxxxxxxxxxxxxxxxxxx &"
bx %"
bx $"
bx #"
b0 ""
b0 !"
b1000000 ~
b1000000 }
b0 |
b0 {
b0 z
b0 y
b0 x
b0 w
b0 v
b0 u
b0 t
b0 s
b0 r
b0 q
0p
0o
0n
0m
0l
0k
0j
0i
b0 h
b0 g
b0 f
b0 e
b0 d
0c
0b
b0 a
b0 `
0_
1^
0]
1\
0[
0Z
b0 Y
b0 X
b0 W
b0 V
b0 U
b0 T
b0 S
b0 R
b0 Q
b0 P
bx O
0N
0M
bx L
bx K
b0 J
b0 I
b0 H
b0 G
0F
b1111 E
0D
0C
b0 B
0A
b0 @
0?
0>
b0 =
b0 <
0;
b0 :
09
b0 8
07
b10 6
05
b0 4
03
b11 2
b0 1
b0 0
b1 /
b0 .
0-
b10 ,
0+
b0 *
0)
b11 (
b0 '
b0 &
b1 %
b0 $
1#
1"
0!
$end
#5000
b100000000 1"
b0 O
b0 %"
b100000 0"
1!
#10000
0!
#15000
b100000 0"
1!
#20000
0!
#25000
b100000 0"
1!
#30000
0!
#35000
b100000 0"
1!
#40000
0!
#45000
b100000 0"
1!
#50000
0!
#55000
b100000 0"
1!
#60000
0!
#65000
b100000 0"
1!
#70000
0!
#75000
b100000 0"
1!
#80000
0!
#85000
b100000 0"
1!
#90000
0!
#95000
b100000 0"
1!
#100000
0!
0#
#105000
b1 {
1o
b1 s
b10 y
b11 u
b1 w
1\
b100000000 1"
15
1_
1+
1]
b1110111101100010000100100011100100100100110000110111110011101110000100001101000100100011000110001100100011111010010001001100010001111011001101111100000001110111110011000011011101101100111001111100000110010000011100111110100001111010001011010101101101111110 O
b1110111101100010000100100011100100100100110000110111110011101110000100001101000100100011000110001100100011111010010001001100010001111011001101111100000001110111110011000011011101101100111001111100000110010000011100111110100001111010001011010101101101111110 %"
0^
b100000 0"
b100000000 }
17
b1 1
1!
#110000
0!
#115000
b100000000 1"
b1111000111000110111001001110011010100111101011001001001110111011010110010011001001100110011011101011010100001010110100101000000100000100101011111110111100001001011001011101111100001001000000100001100111111110111111100000011101111100010010101101001001100100 O
b1111000111000110111001001110011010100111101011001001001110111011010110010011001001100110011011101011010100001010110100101000000100000100101011111110111100001001011001011101111100001001000000100001100111111110111111100000011101111100010010101101001001100100 %"
1D
1p
05
0_
b1 t
b10 z
b11 v
b1 x
b1 |
0^
1o
b1 s
b10 y
b11 u
b1 w
b1 {
07
b100000000 }
b100000 0"
1!
#120000
0!
#125000
b100000000 1"
b1001111001110000110011010110110100000101000111110011000011111001000000010111000011101100010111111100110000001001001011110111100111001001000000101100011101011000000111111100000001111100001101101010011000011010101110001010110001100010001111111110001011111110 O
b1001111001110000110011010110110100000101000111110011000011111001000000010111000011101100010111111100110000001001001011110111100111001001000000101100011101011000000111111100000001111100001101101010011000011010101110001010110001100010001111111110001011111110 %"
0"
b10 u
b100 q
1N
1o
b1 {
b100000 0"
b100000000 }
1F
b11011110101011011011111011101111 B
b11011110101011011011111011101111 ""
1!
#130000
0!
#135000
b1 !"
b1 G
b100000000 1"
b1 u
b1000 q
1o
1N
b1 {
b0 /"
b1010101010111111000100110010011011100111011110010100001010111101101011010000110011101100011100000000010101110110110010111101100110010100100001010100010111111011100101111010011010000100101001000011111001100001101010111110100110111110100100010100000110101001 O
b1010101010111111000100110010011011100111011110010100001010111101101011010000110011101100011100000000010101110110110010111101100110010100100001010100010111111011100101111010011010000100101001000011111001100001101010111110100110111110100100010100000110101001 %"
b10 v
b100 r
b0 &"
b0 '"
b0 ("
b0 )"
b0 *"
b0 +"
b0 ."
b100000000 }
b100000 0"
1!
#140000
0!
#145000
b10 !"
b10 G
b0 u
b1100 q
1o
1N
b1 {
b100000000 1"
b0 L
b0 #"
b0 ,"
b1 v
b1000 r
b1100100100100011101101010011001011100011110110111010011110000101101000100000100011010111010110111001111111000000011101011101001000100110111101010001110000011100011110100010001111100001111100000110000001001110001100011110111101011111010110111110010001010 O
b1100100100100011101101010011001011100011110110111010011110000101101000100000100011010111010110111001111111000000011101011101001000100110111101010001110000011100011110100010001111100001111100000110000001001110001100011110111101011111010110111110010001010 %"
b100000 0"
b100 }
b11011110101011011011111011110000 B
b11011110101011011011111011110000 ""
1!
#150000
0!
#155000
b11 !"
b11 G
b100000000 1"
1^
1b
b1 `
b11111111 u
b10000 q
0o
1N
b0 {
b1011011110100110101000010110101110111110111101110110101100011010000101110101100011111001100010110111000010101100111110000000000101011100011110000011111010011100000001000100101011011010101011010001101100010001010010001011110110011100111100101011011101011011 O
b1011011110100110101000010110101110111110111101110110101100011010000101110101100011111001100010110111000010101100111110000000000101011100011110000011111010011100000001000100101011011010101011010001101100010001010010001011110110011100111100101011011101011011 %"
b0 v
b1100 r
b100000000 }
b100000 0"
1!
#160000
0!
#165000
b100 G
1"
b0 !"
1^
0N
b100000000 1"
1;
1c
b1 8
b1 a
0D
0p
15
1_
b11111111 v
b10000 r
b0 |
b11110111110111111101101010011001101100111010111110101000011110011000000011011000001000100110010010100000010101011001001000011111000111101011001110110110100011001001011111001010011001011100010101110101010111111010010110011110100010010001001110000100110110 O
b11110111110111111101101010011001101100111010111110101000011110011000000011011000001000100110010010100000010101011001001000011111000111101011001110110110100011001001011111001010011001011100010101110101010111111010010110011110100010010001001110000100110110 %"
b100000 0"
b100 }
b11011110101011011011111011110001 B
b11011110101011011011111011110001 ""
1!
#170000
0!
#175000
b100000000 1"
bx /"
b1110110100001010010000100100111000101111011110100111111100011000000101001010010101100110010100001011110000000100101100000011100111110000010111010011100000100100111001011111111100010000010011011100000001000011011011010100011100011110010110000000010101011011 O
b1110110100001010010000100100111000101111011110100111111100011000000101001010010101100110010100001011110000000100101100000011100111110000010111010011100000100100111001011111111100010000010011011100000001000011011011010100011100011110010110000000010101011011 %"
b1 ."
b0xxxxxxxxxxxxxxxxxxxxxxxxxxxxxxxx &"
b0xxxxxxxxxxxxxxxxxxxxxxxxxxxxxxxx '"
b0xxxxxxxxxxxxxxxxxxxxxxxxxxxxxxxx ("
b0xxxxxxxxxxxxxxxxxxxxxxxxxxxxxxxx )"
b0xxxxxxxxxxxxxxxxxxxxxxxxxxxxxxxx *"
b0xxxxxxxxxxxxxxxxxxxxxxxxxxxxxxxx +"
b100000000 }
b100000 0"
1!
#180000
0!
#185000
b100000000 1"
bx L
bx #"
bx ,"
b10 ."
b110000011010110000110100101110101011100010100101010000101100001000001101001101010100000011111010000111110110000101100110000010000000000001000001101110000111101110011100100101000010010100100001000000111011110010100101001010001111010110001010101111100001101 O
b110000011010110000110100101110101011100010100101010000101100001000001101001101010100000011111010000111110110000101100110000010000000000001000001101110000111101110011100100101000010010100100001000000111011110010100101001010001111010110001010101111100001101 %"
b100000 0"
b100000000 }
1C
b11011110101011011011111011110010 B
b11011110101011011011111011110010 ""
1!
#190000
0!
#195000
b100000000 1"
b1010110100100000101100111011111001110110110100001011100111101011111110101010111000001100001110111001110111111011110001101111010001101010111111010001011101100101011101110010010110100110011100000111100011100001101110110000000011101111111111100010000001100111 O
b1010110100100000101100111011111001110110110100001011100111101011111110101010111000001100001110111001110111111011110001101111010001101010111111010001011101100101011101110010010110100110011100000111100011100001101110110000000011101111111111100010000001100111 %"
b11 ."
0b
1^
19
0C
0F
b100000000 }
b100000 0"
1!
#200000
0!
#205000
b100000000 1"
b100 ."
0;
0c
b1110001000010001100111110000011010111110000101111101111011011010011100110011100010010111110111000010000101101100100011010100010011010110000011111011001101100101111100001010101010110010000010101011001011110010001010010001111010000000011011000111011001101101 O
b1110001000010001100111110000011010111110000101111101111011011010011100110011100010010111110111000010000101101100100011010100010011010110000011111011001101100101111100001010101010110010000010101011001011110010001010010001111010000000011011000111011001101101 %"
0b
1^
b100000 0"
b100000000 }
09
1!
#210000
0!
#215000
b100000000 1"
b1000101011000011001101011100100000011000010010010011111100011011101000010100110111000111111111111101001000010110011111111001001110010011010110011000011100110011010010111100100101001101111000010100011000000110111000101000011100011000100001111100010111000111 O
b1000101011000011001101011100100000011000010010010011111100011011101000010100110111000111111111111101001000010110011111111001001110010011010110011000011100110011010010111100100101001101111000010100011000000110111000101000011100011000100001111100010111000111 %"
b101 ."
1Z
b1 R
b10 X
b11 T
b1 V
0\
1-
b1 '
b100000000 }
b100000 0"
1!
#220000
0!
#225000
0"
b100 P
b1 f
1l
1M
b100000000 1"
b110 ."
0+
0]
b1 S
b10 Y
b11 U
b1 W
1[
b1110100111111011000001110111110111111011110001011101011000000110011011000001011011100110000101010111001111011110000010100110110100000010111001101100110001110110010001100101100101101000110111100101001100111110110110101111010100001100110101001110111010100010 O
b1110100111111011000001110111110111111011110001011101011000000110011011000001011011100110000101010111001111011110000010100110110100000010111001101100110001110110010001100101100101101000110111100101001100111110110110101111010100001100110101001110111010100010 %"
0\
b1 R
b10 X
b10 T
b1 V
1Z
b100000 0"
b100000000 }
0-
1!
#230000
0!
#235000
b1 !"
b1 J
b100000000 1"
b0 /"
b100001100101101010000111010110110010110001101010011110011111001100100101011111010101000001100011010111100101101001100111001101101001101010101111010000000111001010110001011111110011110001110001010111011110001010100000100010110111110000100001101110010100110 O
b100001100101101010000111010110110010110001101010011110011111001100100101011111010101000001100011010111100101101001100111001101101001101010101111010000000111001010110001011111110011110001110001010111011110001010100000100010110111110000100001101110010100110 %"
bx <
bx e
1A
1n
b1 =
b1 h
b10 U
b100 Q
b0 &"
b0 '"
b0 ("
b0 )"
b0 *"
b0 +"
b0 ."
b11011110101011011011111011101111 K
b11011110101011011011111011101111 $"
b11011110101011011011111011101111 -"
b1 T
b1000 P
1l
b1 f
1M
1Z
1?
b100000000 }
b100000 0"
1!
#240000
0!
#245000
b10 !"
b10 J
b0 T
b1100 P
1l
1M
1Z
b100000000 1"
b0 L
b0 #"
b0 ,"
b11011110101011011011111011110000 K
b11011110101011011011111011110000 $"
b11011110101011011011111011110000 -"
1m
bx d
b1 g
b11011110101011011011111011101111 <
b11011110101011011011111011101111 e
b1 U
b1000 Q
b1011011100001001010110010001111101111000000101011010111011100011111110011100100110000001111000000110001101001101011110100101110110001111000111010011101001100001000100111100001110001000000110001011010110000010011001100010101110110111111000001001111110011011 O
b1011011100001001010110010001111101111000000101011010111011100011111110011100100110000001111000000110001101001101011110100101110110001111000111010011101001100001000100111100001110001000000110001011010110000010011001100010101110110111111000001001111110011011 %"
b100000 0"
b100000000 }
1!
#250000
0!
#255000
b11 !"
b11 J
b100000000 1"
1\
b11111111 T
b10000 P
1i
1l
1M
0Z
b11001011111011100110001010010100000000111010000111010100010001110011000000111011110000111000010001000110101011111111111110110101001100101011000010000100000011110001000101110101111001101101010100011111010100110111111101010101010010101001010110110011110001 O
b11001011111011100110001010010100000000111010000111010100010001110011000000111011110000111000010001000110101011111111111110110101001100101011000010000100000011110001000101110101111001101101010100011111010100110111111101010101010010101001010110110011110001 %"
b11011110101011011011111011101111 d
b11011110101011011011111011110000 <
b11011110101011011011111011110000 e
b0 U
b1100 Q
b100000000 }
b100000 0"
1!
#260000
0!
#265000
b100 !"
b100 J
1"
1\
0l
0M
b100000000 1"
b11011110101011011011111011110001 K
b11011110101011011011111011110001 $"
b11011110101011011011111011110001 -"
b11011110101011011011111011110000 d
1>
1k
1+
1]
b11111111 U
b10000 Q
0[
b100101011110111100111000111001110001000000110110110011001101001001000110111001010010101011111000111011000000110111010010010010010101100111000110111000000100010001110011010110000110001101110110011010100010111101000001101001001110100010011101110001001001001 O
b100101011110111100111000111001110001000000110110110011001101001001000110111001010010101011111000111011000000110111010010010010010101100111000110111000000100010001110011010110000110001101110110011010100010111101000001101001001110100010011101110001001001001 %"
b100000 0"
b100000000 }
1!
#270000
0!
#275000
b100000000 1"
1\
bx /"
b1000011001011100101111111100010111011011100001000010010011010101100011011111110110001011011111100110110111100101011100101001100110000110011111110111001001111110100010000011111000110101000110111111100111011000000101110110001100110000111000100011000000101011 O
b1000011001011100101111111100010111011011100001000010010011010101100011011111110110001011011111100110110111100101011100101001100110000110011111110111001001111110100010000011111000110101000110111111100111011000000101110110001100110000111000100011000000101011 %"
1j
0A
0n
b1 ."
b0xxxxxxxxxxxxxxxxxxxxxxxxxxxxxxxx &"
b0xxxxxxxxxxxxxxxxxxxxxxxxxxxxxxxx '"
b0xxxxxxxxxxxxxxxxxxxxxxxxxxxxxxxx ("
b0xxxxxxxxxxxxxxxxxxxxxxxxxxxxxxxx )"
b0xxxxxxxxxxxxxxxxxxxxxxxxxxxxxxxx *"
b0xxxxxxxxxxxxxxxxxxxxxxxxxxxxxxxx +"
b100000000 }
b100000 0"
1!
#280000
0!
#285000
1\
b100000000 1"
bx L
bx #"
bx ,"
b10 ."
0m
b1010000100011010101101101001100101011110101111100111011100101000000011011011110010011001100011001000010101001101011001001011110011100101001110011000100001111000001110001110010001011000000111001010011011001101000001010010101001000010011010011011010100110110 O
b1010000100011010101101101001100101011110101111100111011100101000000011011011110010011001100011001000010101001101011001001011110011100101001110011000100001111000001110001110010001011000000111001010011011001101000001010010101001000010011010011011010100110110 %"
b100000 0"
b100000000 }
1!
#290000
0!
#295000
b100000000 1"
b10011011010100000100000101011001000010001001101100110001111100100011100001111101101111000110101000001101100110100000100011001011010011001110001010000001010011110001111101110111010111000100100000011000101000101101110110001010001001100001000101101001001001 O
b10011011010100000100000101011001000010001001101100110001111100100011100001111101101111000110101000001101100110100000100011001011010011001110001010000001010011110001111101110111010111000100100000011000101000101101110110001010001001100001000101101001001001 %"
b11 ."
b100000000 }
b100000 0"
1!
#300000
0!
#305000
b100000000 1"
b100 ."
b1111011110001110100111110110011110100101001111111000011110111000001011001001010001100010000101110111011001111101101011001010011110111111110100101111111000100011111100100101110100001010011101111101000001111001100001100011011011010100001101011010100111101 O
b1111011110001110100111110110011110100101001111111000011110111000001011001001010001100010000101110111011001111101101011001010011110111111110100101111111000100011111100100101110100001010011101111101000001111001100001100011011011010100001101011010100111101 %"
1\
b100000 0"
b100000000 }
0?
1!
